%YAML 1.1
%TAG !u! tag:unity3d.com,2011:
--- !u!114 &11400000
MonoBehaviour:
  m_ObjectHideFlags: 0
  m_CorrespondingSourceObject: {fileID: 0}
  m_PrefabInstance: {fileID: 0}
  m_PrefabAsset: {fileID: 0}
  m_GameObject: {fileID: 0}
  m_Enabled: 1
  m_EditorHideFlags: 0
  m_Script: {fileID: 11500000, guid: d25f5f12dbf36e04884ead55fd497e89, type: 3}
  m_Name: ChunkData_Smooth_StaticTerrainExample
  m_EditorClassIdentifier: 
  _isSmooth: 1
  _reduceVerts: 1
  _useRandomSeed: 0
  _seed: Jacques
  _materialToUse: {fileID: 2100000, guid: d1b0a4dcc676223488e49e07ba4fec18, type: 2}
  trees:
  - {fileID: 192044, guid: 19682540d8a014522a319b1cf788aee2, type: 3}
  - {fileID: 191266, guid: c44bd9bdc114d4a60932c0087d9d1732, type: 3}
